Data 607-Tidying and Transforming Data
…
Make the column names lowercase

names(dataset1) <- tolower(names(dataset1))    # Convert colnames to lower case
dataset1  

## # A tibble: 3,220 x 9
##    county name        population `median age` `household incom~ `per capita inc~
##    <chr>  <chr>            <dbl>        <dbl>             <dbl>            <dbl>
##  1 051    Fayette Co~      21565         41.9             46650            23194
##  2 107    Logan Coun~      29003         40.1             57308            27546
##  3 165    Saline Cou~      23994         42.2             44090            25342
##  4 097    Lake Count~     701473         38.4             89427            45766
##  5 127    Massac Cou~      14219         43.5             47481            23539
##  6 017    Cass Count~      12493         40               52373            26992
##  7 069    Huntington~      36359         40.7             53632            26502
##  8 181    White Coun~      24149         42               54576            27461
##  9 075    Jay County~      20840         39.7             47658            23443
## 10 145    Shelby Cou~      44438         40.8             60404            29583
## # ... with 3,210 more rows, and 3 more variables: poverty count <dbl>,
## #   poverty rate <dbl>, unemployment rate <dbl>

Seperating a column into two columns dataset1

dataset1 <- dataset1 %>% separate(name, c("county", "state"), ",")

dataset1

## # A tibble: 3,220 x 9
##    population county     state   `median age` `household incom~ `per capita inc~
##         <dbl> <chr>      <chr>          <dbl>             <dbl>            <dbl>
##  1      21565 Fayette C~ " Illi~         41.9             46650            23194
##  2      29003 Logan Cou~ " Illi~         40.1             57308            27546
##  3      23994 Saline Co~ " Illi~         42.2             44090            25342
##  4     701473 Lake Coun~ " Illi~         38.4             89427            45766
##  5      14219 Massac Co~ " Illi~         43.5             47481            23539
##  6      12493 Cass Coun~ " Illi~         40               52373            26992
##  7      36359 Huntingto~ " Indi~         40.7             53632            26502
##  8      24149 White Cou~ " Indi~         42               54576            27461
##  9      20840 Jay County " Indi~         39.7             47658            23443
## 10      44438 Shelby Co~ " Indi~         40.8             60404            29583
## # ... with 3,210 more rows, and 3 more variables: poverty count <dbl>,
## #   poverty rate <dbl>, unemployment rate <dbl>

Dropping duplicates

dataset1 <- dataset1 %>% distinct()

dataset1

## # A tibble: 3,220 x 9
##    population county     state   `median age` `household incom~ `per capita inc~
##         <dbl> <chr>      <chr>          <dbl>             <dbl>            <dbl>
##  1      21565 Fayette C~ " Illi~         41.9             46650            23194
##  2      29003 Logan Cou~ " Illi~         40.1             57308            27546
##  3      23994 Saline Co~ " Illi~         42.2             44090            25342
##  4     701473 Lake Coun~ " Illi~         38.4             89427            45766
##  5      14219 Massac Co~ " Illi~         43.5             47481            23539
##  6      12493 Cass Coun~ " Illi~         40               52373            26992
##  7      36359 Huntingto~ " Indi~         40.7             53632            26502
##  8      24149 White Cou~ " Indi~         42               54576            27461
##  9      20840 Jay County " Indi~         39.7             47658            23443
## 10      44438 Shelby Co~ " Indi~         40.8             60404            29583
## # ... with 3,210 more rows, and 3 more variables: poverty count <dbl>,
## #   poverty rate <dbl>, unemployment rate <dbl>

Renaming the columns

names(dataset1)[4:9] <- c('median_age', 'household_income', 'per_capita_income', 'poverty_count',
                     'poverty_rate', 'unemployment_rate')

dataset1

## # A tibble: 3,220 x 9
##    population county       state    median_age household_income per_capita_inco~
##         <dbl> <chr>        <chr>         <dbl>            <dbl>            <dbl>
##  1      21565 Fayette Cou~ " Illin~       41.9            46650            23194
##  2      29003 Logan County " Illin~       40.1            57308            27546
##  3      23994 Saline Coun~ " Illin~       42.2            44090            25342
##  4     701473 Lake County  " Illin~       38.4            89427            45766
##  5      14219 Massac Coun~ " Illin~       43.5            47481            23539
##  6      12493 Cass County  " Illin~       40              52373            26992
##  7      36359 Huntington ~ " India~       40.7            53632            26502
##  8      24149 White County " India~       42              54576            27461
##  9      20840 Jay County   " India~       39.7            47658            23443
## 10      44438 Shelby Coun~ " India~       40.8            60404            29583
## # ... with 3,210 more rows, and 3 more variables: poverty_count <dbl>,
## #   poverty_rate <dbl>, unemployment_rate <dbl>

Removing the string county

dataset1$county <-gsub(" County","",as.character(dataset1$county))

dataset1

## # A tibble: 3,220 x 9
##    population county     state      median_age household_income per_capita_inco~
##         <dbl> <chr>      <chr>           <dbl>            <dbl>            <dbl>
##  1      21565 Fayette    " Illinoi~       41.9            46650            23194
##  2      29003 Logan      " Illinoi~       40.1            57308            27546
##  3      23994 Saline     " Illinoi~       42.2            44090            25342
##  4     701473 Lake       " Illinoi~       38.4            89427            45766
##  5      14219 Massac     " Illinoi~       43.5            47481            23539
##  6      12493 Cass       " Illinoi~       40              52373            26992
##  7      36359 Huntington " Indiana"       40.7            53632            26502
##  8      24149 White      " Indiana"       42              54576            27461
##  9      20840 Jay        " Indiana"       39.7            47658            23443
## 10      44438 Shelby     " Indiana"       40.8            60404            29583
## # ... with 3,210 more rows, and 3 more variables: poverty_count <dbl>,
## #   poverty_rate <dbl>, unemployment_rate <dbl>
…
Sorting by columns

# sort by state and county
# sort the dataframe in R using arrange

dataset1 <- arrange(dataset1,state, county)

dataset1

## # A tibble: 3,220 x 9
##    population county   state   median_age household_income per_capita_income
##         <dbl> <chr>    <chr>        <dbl>            <dbl>             <dbl>
##  1      55380 Autauga  Alabama       38.2            58731             29819
##  2     212830 Baldwin  Alabama       43              58320             32626
##  3      25361 Barbour  Alabama       40.4            32525             18473
##  4      22493 Bibb     Alabama       40.9            47542             20778
##  5      57681 Blount   Alabama       40.7            49358             24747
##  6      10248 Bullock  Alabama       40.2            37785             20877
##  7      19828 Butler   Alabama       40.8            40688             21038
##  8     114618 Calhoun  Alabama       39.6            47255             25345
##  9      33660 Chambers Alabama       42              42289             22729
## 10      25903 Cherokee Alabama       46.5            41919             24301
## # ... with 3,210 more rows, and 3 more variables: poverty_count <dbl>,
## #   poverty_rate <dbl>, unemployment_rate <dbl>

fill NA with 0 in dataset1

dataset1[is.na(dataset1)] <- 0

dataset1

## # A tibble: 3,220 x 9
##    population county   state   median_age household_income per_capita_income
##         <dbl> <chr>    <chr>        <dbl>            <dbl>             <dbl>
##  1      55380 Autauga  Alabama       38.2            58731             29819
##  2     212830 Baldwin  Alabama       43              58320             32626
##  3      25361 Barbour  Alabama       40.4            32525             18473
##  4      22493 Bibb     Alabama       40.9            47542             20778
##  5      57681 Blount   Alabama       40.7            49358             24747
##  6      10248 Bullock  Alabama       40.2            37785             20877
##  7      19828 Butler   Alabama       40.8            40688             21038
##  8     114618 Calhoun  Alabama       39.6            47255             25345
##  9      33660 Chambers Alabama       42              42289             22729
## 10      25903 Cherokee Alabama       46.5            41919             24301
## # ... with 3,210 more rows, and 3 more variables: poverty_count <dbl>,
## #   poverty_rate <dbl>, unemployment_rate <dbl>

Analysis:

Step 1: Select data frame Step 2: Group data Step 3: Summarize the data Step 4: Plot the summary statistics

library(ggplot2)
# Step 1
dataset1 %>% 
#Step 2
group_by(state) 

## # A tibble: 3,220 x 9
## # Groups:   state [52]
##    population county   state   median_age household_income per_capita_income
##         <dbl> <chr>    <chr>        <dbl>            <dbl>             <dbl>
##  1      55380 Autauga  Alabama       38.2            58731             29819
##  2     212830 Baldwin  Alabama       43              58320             32626
##  3      25361 Barbour  Alabama       40.4            32525             18473
##  4      22493 Bibb     Alabama       40.9            47542             20778
##  5      57681 Blount   Alabama       40.7            49358             24747
##  6      10248 Bullock  Alabama       40.2            37785             20877
##  7      19828 Butler   Alabama       40.8            40688             21038
##  8     114618 Calhoun  Alabama       39.6            47255             25345
##  9      33660 Chambers Alabama       42              42289             22729
## 10      25903 Cherokee Alabama       46.5            41919             24301
## # ... with 3,210 more rows, and 3 more variables: poverty_count <dbl>,
## #   poverty_rate <dbl>, unemployment_rate <dbl>

Multiple columns data by bar plot:

# First filter the state Alabama and selecting the columns 

dataset1_alabama <- dataset1 %>% filter(state == "Alabama") %>%

  select(c(3:9, 1))

dataset1_alabama

## # A tibble: 67 x 8
##    state median_age household_income per_capita_inco~ poverty_count poverty_rate
##    <chr>      <dbl>            <dbl>            <dbl>         <dbl>        <dbl>
##  1 Alab~       38.2            58731            29819          8340         15.1
##  2 Alab~       43              58320            32626         21704         10.2
##  3 Alab~       40.4            32525            18473          6875         27.1
##  4 Alab~       40.9            47542            20778          3740         16.6
##  5 Alab~       40.7            49358            24747          7739         13.4
##  6 Alab~       40.2            37785            20877          2825         27.6
##  7 Alab~       40.8            40688            21038          4397         22.2
##  8 Alab~       39.6            47255            25345         19969         17.4
##  9 Alab~       42              42289            22729          5711         17.0
## 10 Alab~       46.5            41919            24301          3560         13.7
## # ... with 57 more rows, and 2 more variables: unemployment_rate <dbl>,
## #   population <dbl>
…
Transform the table from wide form to long form

data1_al <- dataset1_alabama %>%

  pivot_longer(cols = c(2:8),

               names_to = "Variable",

               values_to = "Value")

data1_al

## # A tibble: 469 x 3
##    state   Variable             Value
##    <chr>   <chr>                <dbl>
##  1 Alabama median_age           38.2 
##  2 Alabama household_income  58731   
##  3 Alabama per_capita_income 29819   
##  4 Alabama poverty_count      8340   
##  5 Alabama poverty_rate         15.1 
##  6 Alabama unemployment_rate     1.69
##  7 Alabama population        55380   
##  8 Alabama median_age           43   
##  9 Alabama household_income  58320   
## 10 Alabama per_capita_income 32626   
## # ... with 459 more rows
…
Dropping 4:32 columns

dataset2 <- select(dataset2, -(4:32))

dataset2

## # A tibble: 3,283 x 18
##    `FIPS Code` State `Area name`  `High school diploma~ `Some college or associ~
##          <dbl> <chr> <chr>                        <dbl>                    <dbl>
##  1           0 US    United Stat~              52168981                 49864428
##  2        1000 AL    Alabama                     877216                   746495
##  3        1001 AL    Autauga Cou~                  9332                     7413
##  4        1003 AL    Baldwin Cou~                 28428                    28178
##  5        1005 AL    Barbour Cou~                  6124                     4025
##  6        1007 AL    Bibb County                   4838                     2756
##  7        1009 AL    Blount Coun~                 12136                     8371
##  8        1011 AL    Bullock Cou~                  2667                     1325
##  9        1013 AL    Butler Coun~                  4749                     3146
## 10        1015 AL    Calhoun Cou~                 23856                    19576
## # ... with 3,273 more rows, and 13 more variables:
## #   Bachelor's degree or higher, 2000 <dbl>,
## #   Percent of adults with less than a high school diploma, 2000 <dbl>,
## #   Percent of adults with a high school diploma only, 2000 <dbl>,
## #   Percent of adults completing some college or associate's degree, 2000 <dbl>,
## #   Percent of adults with a bachelor's degree or higher, 2000 <dbl>,
## #   Less than a high school diploma, 2015-19 <dbl>,
## #   High school diploma only, 2015-19 <dbl>,
## #   Some college or associate's degree, 2015-19 <dbl>,
## #   Bachelor's degree or higher, 2015-19 <dbl>,
## #   Percent of adults with less than a high school diploma, 2015-19 <dbl>,
## #   Percent of adults with a high school diploma only, 2015-19 <dbl>,
## #   Percent of adults completing some college or associate's degree, 2015-19 <dbl>,
## #   Percent of adults with a bachelor's degree or higher, 2015-19 <dbl>

Rename the columns by removing space with underscore

names(dataset2) <- gsub(" ", "_", names(dataset2))

dataset2

## # A tibble: 3,283 x 18
##    FIPS_Code State Area_name  `High_school_di~ `Some_college_o~ `Bachelor's_deg~
##        <dbl> <chr> <chr>                 <dbl>            <dbl>            <dbl>
##  1         0 US    United St~         52168981         49864428         44462605
##  2      1000 AL    Alabama              877216           746495           549608
##  3      1001 AL    Autauga C~             9332             7413             4972
##  4      1003 AL    Baldwin C~            28428            28178            22146
##  5      1005 AL    Barbour C~             6124             4025             2068
##  6      1007 AL    Bibb Coun~             4838             2756              962
##  7      1009 AL    Blount Co~            12136             8371             3235
##  8      1011 AL    Bullock C~             2667             1325              586
##  9      1013 AL    Butler Co~             4749             3146             1433
## 10      1015 AL    Calhoun C~            23856            19576            11265
## # ... with 3,273 more rows, and 12 more variables:
## #   Percent_of_adults_with_less_than_a_high_school_diploma,_2000 <dbl>,
## #   Percent_of_adults_with_a_high_school_diploma_only,_2000 <dbl>,
## #   Percent_of_adults_completing_some_college_or_associate's_degree,_2000 <dbl>,
## #   Percent_of_adults_with_a_bachelor's_degree_or_higher,_2000 <dbl>,
## #   Less_than_a_high_school_diploma,_2015-19 <dbl>,
## #   High_school_diploma_only,_2015-19 <dbl>,
## #   Some_college_or_associate's_degree,_2015-19 <dbl>,
## #   Bachelor's_degree_or_higher,_2015-19 <dbl>,
## #   Percent_of_adults_with_less_than_a_high_school_diploma,_2015-19 <dbl>,
## #   Percent_of_adults_with_a_high_school_diploma_only,_2015-19 <dbl>,
## #   Percent_of_adults_completing_some_college_or_associate's_degree,_2015-19 <dbl>,
## #   Percent_of_adults_with_a_bachelor's_degree_or_higher,_2015-19 <dbl>

Removing comma from column names

names(dataset2) <- gsub(",", "", names(dataset2))

dataset2

## # A tibble: 3,283 x 18
##    FIPS_Code State Area_name  High_school_dip~ `Some_college_o~ `Bachelor's_deg~
##        <dbl> <chr> <chr>                 <dbl>            <dbl>            <dbl>
##  1         0 US    United St~         52168981         49864428         44462605
##  2      1000 AL    Alabama              877216           746495           549608
##  3      1001 AL    Autauga C~             9332             7413             4972
##  4      1003 AL    Baldwin C~            28428            28178            22146
##  5      1005 AL    Barbour C~             6124             4025             2068
##  6      1007 AL    Bibb Coun~             4838             2756              962
##  7      1009 AL    Blount Co~            12136             8371             3235
##  8      1011 AL    Bullock C~             2667             1325              586
##  9      1013 AL    Butler Co~             4749             3146             1433
## 10      1015 AL    Calhoun C~            23856            19576            11265
## # ... with 3,273 more rows, and 12 more variables:
## #   Percent_of_adults_with_less_than_a_high_school_diploma_2000 <dbl>,
## #   Percent_of_adults_with_a_high_school_diploma_only_2000 <dbl>,
## #   Percent_of_adults_completing_some_college_or_associate's_degree_2000 <dbl>,
## #   Percent_of_adults_with_a_bachelor's_degree_or_higher_2000 <dbl>,
## #   Less_than_a_high_school_diploma_2015-19 <dbl>,
## #   High_school_diploma_only_2015-19 <dbl>,
## #   Some_college_or_associate's_degree_2015-19 <dbl>,
## #   Bachelor's_degree_or_higher_2015-19 <dbl>,
…
